<?xml version="1.0" encoding="iso-8859-1"?>
<!-- Generator: Adobe Illustrator 16.0.0, SVG Export Plug-In . SVG Version: 6.00 Build 0)  -->
<!DOCTYPE svg PUBLIC "-//W3C//DTD SVG 1.1//EN" "http://www.w3.org/Graphics/SVG/1.1/DTD/svg11.dtd">
<svg version="1.1" id="Capa_1" xmlns="http://www.w3.org/2000/svg" xmlns:xlink="http://www.w3.org/1999/xlink" x="0px" y="0px"
	 width="681.35px" height="681.35px" viewBox="0 0 681.35 681.35" style="enable-background:new 0 0 681.35 681.35;"
	 xml:space="preserve">
<g>
	<path d="M644.263,613.064c-0.212-1.699-21.412-172.053-21.412-355.844c0-69.184-26.94-133.333-75.864-182.257
		C498.07,26.04,433.021,0,363.837,0h-46.583C248.07,0,183.021,26.04,134.097,74.964c-48.924,48.924-75.864,113.519-75.864,182.703
		c0,183.792-21.192,353.925-21.412,355.626l-2.146,16.955l16.94,2.928c0.775,0.143,19.25,3.322,42.604,3.322
		c20.159,0,37.921-2.381,52.793-7.049c1.402-0.439,2.78-0.908,4.135-1.387c-2.757,7.4-6.406,15.561-11.239,24.27l-14.574,27.395
		l30.081,1.623c0,0,0.36,0,1.049,0c5.803,0,36.378-1.574,68.158-11.207c25.171-7.629,45.118-19.713,59.293-34.664
		c0.039,0.078,0.086-0.109,0.125-0.031c11.92,23.088,30.269,37.365,53.059,41.555l3.282,0.541l0.156-0.062l0.157,0.008l3.281-0.611
		c22.79-4.189,41.14-18.615,53.06-41.695c0.039-0.078,0.086-0.164,0.125-0.242c14.175,14.949,34.122,27.574,59.293,35.203
		c31.78,9.633,62.363,11.207,68.166,11.207c0.689,0,1.058,0,1.058,0l30.222-1.631l-14.738-26.893
		c-4.872-8.701-8.537-17.127-11.294-24.529c1.379,0.494,3.298,0.822,4.73,1.277c14.872,4.668,29.815,6.971,53.31,6.971v-0.031
		c23.495,0,41.319-3.227,42.087-3.369l16.682-2.998L644.263,613.064z M552.343,150.429c0.024-0.008,0.087-0.031,0.259-0.031
		c2.357,0,8.45,3.751,11.818,12.421c1.879,4.848,2.357,9.891,1.308,13.838c-0.611,2.279-1.527,3.321-1.849,3.454
		c-0.023,0.008-0.086,0.031-0.258,0.031c-2.365,0-8.45-3.751-11.818-12.421C548.146,158.308,550.824,151.017,552.343,150.429z
		 M462.249,74.792c4.729-4.378,11.199-6.579,19.657-6.688c14.159,8.881,27.426,19.415,39.533,31.522
		c5.71,5.709,11.051,11.677,16.055,17.864c-21.137,9.476-29.666,36.839-19.375,63.318c8.239,21.216,26.525,35.469,45.502,35.477l0,0
		c4.604,0,9.1-0.838,13.345-2.491c1.754-0.681,3.431-1.503,5.036-2.443c3.108,14.927,4.714,30.269,4.714,45.87
		c0,44.068,1.206,87.369,3.047,127.82c-18.6,5.529-34.099,4.158-47.139-4.129c-9.906-6.295-18.013-16.273-24.599-28.045
		l-3.273-12.099c-2.139-7.894-4.559-36.965-3.986-130.662c0.023-3.955,0.039-7.001,0.039-8.881
		c0-42.941-18.075-78.316-52.269-102.296c-1.989-1.394-4.033-2.749-6.116-4.057C453.681,88.364,456.492,80.109,462.249,74.792z
		 M206.469,209.887c-0.023-3.853-0.039-6.829-0.039-8.669c0-31.084,12.405-55.542,36.871-72.701
		c5.404-3.79,11.395-7.181,17.879-10.165c-5.263,6.038-6.845,13.548-3.336,18.733c4.503,6.649,15.671,6.955,24.952,0.674
		c9.28-6.281,13.157-16.76,8.654-23.417c-1.503-2.224-3.767-3.728-6.445-4.519c16.736-4.519,35.524-6.899,55.534-6.907
		c20.018,0.008,38.814,2.389,55.549,6.907c-2.678,0.799-4.941,2.295-6.445,4.519c-4.503,6.649-0.626,17.135,8.654,23.417
		c9.28,6.281,20.448,5.975,24.951-0.674c3.509-5.185,1.927-12.695-3.336-18.733c6.484,2.984,12.476,6.383,17.879,10.165
		c24.467,17.159,36.872,41.625,36.872,72.701c0,1.84-0.016,4.809-0.04,8.662c-0.078,12.39-0.102,23.863-0.086,34.482
		c0.008,3.085,0.016,6.109,0.031,9.053c0.039,9.085,0.126,17.488,0.243,25.233c0.109,6.994,0.251,13.462,0.431,19.415
		c-1.864-1.691-3.79-3.407-5.748-5.129c-3.313-2.914-6.751-5.858-10.291-8.803c-6.18-5.122-12.656-10.212-19.32-15.037
		c-9.79-7.087-19.947-13.603-30.034-18.764l-18.091-9.265l-7.088,19.055c-0.133,0.352-12.343,32.423-44.124,59.207
		c-31.475-26.596-44.021-58.901-44.139-59.207l-7.087-19.055l-18.091,9.265c-10.009,5.129-20.088,11.583-29.807,18.608
		c-7.229,5.224-14.253,10.769-20.902,16.321c-3,2.514-5.913,5.02-8.74,7.511c-2.021,1.778-4.01,3.547-5.936,5.294
		c0.18-6.156,0.329-12.859,0.438-20.135c0.118-7.526,0.196-15.671,0.235-24.458c0.016-2.866,0.023-5.795,0.031-8.795
		C206.578,233.984,206.547,222.401,206.469,209.887z M424.759,302.871c-1.183,2.107-2.42,4.221-3.72,6.344
		c-20.417,33.229-46.104,50.748-76.397,52.15l6.32-4.457c30.011-21.16,48.438-47.513,58.329-65.048
		C414.499,295.267,419.684,298.995,424.759,302.871z M336.426,361.342c-29.94-1.488-55.385-18.748-75.669-51.391
		c-1.496-2.412-2.914-4.824-4.252-7.229c5.02-3.83,10.142-7.502,15.295-10.878c9.892,17.543,28.319,43.888,58.33,65.056
		L336.426,361.342z M228.452,326.382c0.352,0.579,0.697,1.167,1.057,1.746c27.919,45.446,66.365,69.474,111.162,69.474
		c44.805,0,83.242-24.027,111.162-69.474c0.328-0.533,0.642-1.057,0.955-1.59c9.899,9.093,18.192,17.433,23.706,23.173
		c0.478,1.184,0.964,2.35,1.457,3.502c-2.647,14.684-9.304,43.896-23.934,72.582c-26.017,51.008-64.524,76.867-114.467,76.867
		c-49.856,0-87.964-25.805-113.276-76.701c-14.935-30.035-21.122-60.656-23.323-74.541
		C208.419,345.67,217.449,336.484,228.452,326.382z M317.254,31.326h46.583c25.97,0,51.258,5.921,75.019,14.387
		c-0.501,0.438-0.994,1.637-1.456,2.067c-9.821,9.218-15.265,20.903-18.287,30.888c-23.104-8.075-49.621-12.069-78.575-12.084
		C311.6,66.6,285.074,70.876,261.979,78.95c-3.023-9.985-8.466-21.247-18.287-30.465c-0.462-0.438-0.956-2.357-1.457-2.804
		C265.997,37.224,291.285,31.326,317.254,31.326z M116.671,162.811c3.368-8.67,9.453-12.421,11.818-12.421
		c0.172,0,0.235,0.023,0.259,0.031c1.519,0.587,4.198,7.878,0.54,17.292c-3.367,8.67-9.453,12.421-11.818,12.421
		c-0.172,0-0.235-0.023-0.258-0.031c-0.321-0.125-1.245-1.167-1.848-3.454C114.314,172.702,114.792,167.659,116.671,162.811z
		 M94.375,257.221c0-15.601,1.605-30.942,4.715-45.87c1.613,0.932,3.281,1.762,5.036,2.443c4.245,1.653,8.74,2.491,13.345,2.491
		c18.976,0,37.263-14.253,45.502-35.477c10.291-26.479,1.762-53.842-19.375-63.318c5.004-6.195,10.346-12.163,16.055-17.864
		c12.108-12.107,25.375-22.641,39.534-31.522c8.458,0.118,14.927,2.31,19.657,6.688c5.748,5.318,8.567,13.572,9.829,20.088
		c-2.083,1.308-4.127,2.655-6.125,4.057c-34.193,23.98-52.268,59.355-52.268,102.296c0,1.887,0.016,4.934,0.039,8.889
		c0.572,93.697-1.856,122.768-3.986,130.654l-2.052,7.589c-6.994,13.729-15.859,25.469-27.011,32.555
		c-12.757,8.115-27.88,9.594-45.963,4.465C93.169,344.824,94.375,301.415,94.375,257.221z M586.873,600.33L586.873,600.33
		c-20.456,0-56.419-3.014-67.548-23.221l-29.11-52.832l-4.729,60.131c-0.095,1.191-1.645,23.66,10.557,56.342
		c-30.621-4.371-76.045-17.08-85.779-54.062c-2.139-8.137-9.516-13.822-17.935-13.822c-9.28,0-17.183,6.939-18.389,16.141
		c-0.642,4.895-2.804,17.59-9.006,29.604c-6.18,11.959-14.176,19.195-24.388,22.023c-10.212-2.828-18.208-10.064-24.387-22.023
		c-6.203-12.014-8.364-24.701-9.006-29.596c-1.198-9.201-9.108-16.148-18.389-16.148c-8.419,0-15.789,5.686-17.927,13.822
		c-9.75,37.021-55.252,49.723-85.873,54.078c9.468-25.406,11.395-46.145,10.659-56.254l-4.448-60.758l-29.4,53.355
		c-11.137,20.207-47.099,23.221-67.54,23.221c-7.158,0-13.831-0.352-19.446-0.814c3.36-30.268,10.032-95.99,14.653-177.377
		c7.502,1.605,14.778,2.42,21.827,2.42c16.47,0,31.671-4.395,45.47-13.182c6.845-4.361,13.212-9.75,19.101-16.141
		c4.088,14.043,9.766,29.91,17.605,45.848c31.444,63.928,81.973,97.723,146.122,97.723c64.062,0,114.952-33.732,147.156-97.551
		c7.941-15.727,13.768-31.396,18.021-45.299c5.701,6.078,11.856,11.223,18.443,15.42c13.799,8.787,28.992,13.182,45.47,13.182
		c7.409,0,15.084-0.9,23.002-2.678c4.62,81.51,11.309,147.334,14.668,177.643C600.695,599.979,594.039,600.33,586.873,600.33z"/>
</g>
<g>
</g>
<g>
</g>
<g>
</g>
<g>
</g>
<g>
</g>
<g>
</g>
<g>
</g>
<g>
</g>
<g>
</g>
<g>
</g>
<g>
</g>
<g>
</g>
<g>
</g>
<g>
</g>
<g>
</g>
</svg>
