<?xml version="1.0" encoding="iso-8859-1"?>
<!-- Generator: Adobe Illustrator 16.0.0, SVG Export Plug-In . SVG Version: 6.00 Build 0)  -->
<!DOCTYPE svg PUBLIC "-//W3C//DTD SVG 1.1//EN" "http://www.w3.org/Graphics/SVG/1.1/DTD/svg11.dtd">
<svg version="1.1" id="Capa_1" xmlns="http://www.w3.org/2000/svg" xmlns:xlink="http://www.w3.org/1999/xlink" x="0px" y="0px"
	 width="612px" height="612px" viewBox="0 0 612 612" style="enable-background:new 0 0 612 612;" xml:space="preserve">
<g>
	<g>
		<path d="M181.135,308.313c4.307-12.948,4.36-26.611,0.14-38.471c-4.621-12.995-14.13-22.731-26.097-26.711
			c-3.813-1.269-7.726-1.917-11.62-1.917c-19.058,0-35.986,15.286-44.173,39.886c-4.327,13.009-5.229,25.562-2.611,36.314
			c3.319,13.589,12.02,23.365,24.521,27.525c3.987,1.329,8.147,1.997,12.374,1.997c10.23,0,20.634-4.021,29.302-11.319
			C171.219,328.654,177.502,319.212,181.135,308.313z M152.387,298.745c-3.866,11.626-12.534,17.896-18.725,17.896
			c-0.981,0-1.896-0.146-2.805-0.447c-1.128-0.374-3.479-1.162-4.654-5.956c-1.235-5.055-0.534-12.188,1.923-19.566
			c4.14-12.44,11.038-19.158,15.432-19.158c0.648,0,1.316,0.12,2.05,0.36C152.307,274.104,156.734,285.683,152.387,298.745z"/>
		<path d="M449.042,335.612c8.667,7.299,19.071,11.319,29.295,11.319h0.007c4.221,0,8.388-0.675,12.367-1.997
			c12.494-4.16,21.202-13.93,24.521-27.525c2.624-10.751,1.716-23.306-2.611-36.314c-8.188-24.601-25.115-39.887-44.174-39.887
			c-3.893,0-7.8,0.641-11.619,1.917c-11.967,3.98-21.476,13.716-26.097,26.711c-4.221,11.86-4.167,25.522,0.14,38.47
			C434.497,319.212,440.781,328.654,449.042,335.612z M466.391,271.873c0.734-0.247,1.402-0.36,2.05-0.36
			c5.884,0,12.341,9.87,15.433,19.158c2.457,7.379,3.158,14.511,1.923,19.566c-1.168,4.801-3.519,5.582-4.654,5.956
			c-0.901,0.301-1.823,0.447-2.798,0.447l0,0c-6.19,0-14.858-6.27-18.725-17.896C455.272,285.683,459.699,274.104,466.391,271.873z"
			/>
		<path d="M90.892,536.922c27.512,21.956,60.293,38.897,97.436,50.351c36.334,11.205,75.927,16.888,117.677,16.888
			c41.756,0,81.349-5.683,117.676-16.888c37.142-11.453,69.923-28.395,97.436-50.351C580.574,489.469,612,421.609,612,340.675
			c0-81.843-32.44-165.363-89.002-229.136c-28.347-31.96-61.001-57.222-97.062-75.078C387.586,17.469,347.232,7.84,306.004,7.84
			c-41.236,0-81.59,9.629-119.934,28.621c-36.054,17.856-68.715,43.118-97.062,75.078C32.441,175.319,0,258.832,0,340.675
			C0,421.609,31.433,489.469,90.892,536.922z M377.776,316.748c17.676,12.394,26.711,30.023,26.878,52.414
			c-0.581,2.397-3.713,9.262-9.342,16.854c-1.355,1.83-2.858,3.706-4.508,5.569c-6.224,7.038-12.715,11.894-18.604,14.037
			c-2.237,0.814-4.387,1.248-6.397,1.248l0,0c-2.45,0-4.814-0.601-7.225-1.836l-15.166-7.773l-5.943,15.967
			c-0.093,0.254-8.808,23.146-31.459,42.691c-22.404-19.406-31.392-42.484-31.472-42.691l-5.943-15.967l-15.165,7.773
			c-2.411,1.235-4.775,1.836-7.226,1.836c-2.01,0-4.16-0.434-6.397-1.248c-5.89-2.144-12.38-6.992-18.604-14.037
			c-1.649-1.863-3.152-3.739-4.508-5.569c-5.629-7.6-8.761-14.457-9.342-16.854c0.161-22.391,9.202-40.021,26.872-52.414
			c17.309-12.141,42.805-18.832,71.767-18.845C334.972,297.917,360.461,304.607,377.776,316.748z M371.746,436.768
			c-9.91,20.715-27.72,46.023-56.654,50.491c23.365-16.588,37.396-37.329,44.607-50.497c2.01,0.273,4.047,0.413,6.091,0.413h0.006
			C367.773,437.169,369.756,437.028,371.746,436.768z M296.921,487.266c-19.232-2.925-35.766-15.326-49.242-36.988
			c-2.832-4.555-5.276-9.129-7.373-13.503c1.97,0.261,3.94,0.395,5.896,0.395c2.05,0,4.08-0.141,6.09-0.414
			C259.519,449.93,273.549,470.678,296.921,487.266z M252.093,147.88c18.618,14.531,30.838,33.155,38.872,51.472v68.775
			c-69.709,4.868-113.91,43.68-113.91,101.643c0,11.359,9.89,28.2,19.699,39.847c1.022,1.215,2.063,2.397,3.112,3.539l0.535,2.33
			c0.24,1.028,5.983,25.449,21.082,50.037c21.195,34.497,50.417,52.728,84.514,52.728c34.097,0,63.326-18.23,84.514-52.728
			c15.105-24.581,20.849-49.009,21.082-50.037l0.534-2.323c1.048-1.143,2.09-2.317,3.111-3.539
			c9.804-11.646,19.7-28.488,19.7-39.854c0-57.896-44.101-96.688-113.683-101.623v-69.302c8.033-18.15,20.206-36.567,38.644-50.958
			c55.206-43.092,227.566,63.873,183.132,250.076c-16.32,68.388-46.443,112.407-80.167,140.748
			c-14.904,7.767-30.978,14.331-48.126,19.619c-33.437,10.311-70.023,15.54-108.749,15.54c-38.724,0-75.312-5.229-108.748-15.54
			c-17.149-5.288-33.222-11.853-48.12-19.619c-33.723-28.341-63.847-72.367-80.167-140.748
			C24.527,211.76,196.881,104.794,252.093,147.88z"/>
	</g>
</g>
<g>
</g>
<g>
</g>
<g>
</g>
<g>
</g>
<g>
</g>
<g>
</g>
<g>
</g>
<g>
</g>
<g>
</g>
<g>
</g>
<g>
</g>
<g>
</g>
<g>
</g>
<g>
</g>
<g>
</g>
</svg>
